{
	"projects": [
		{
			"id": "mastercook",
			"title": "Master cook",
			"type": "games",
			"thumbnail": "mastercook.png",
			"description": "A mobile puzzle game"
		},
		{
			"id": "super-mario",
			"title": "Super Mario",
			"type": "games",
			"thumbnail": "mario.png",
			"description": "Super Mario clone"
		},
		{
			"id": "3d-shooter",
			"title": "3D shooter",
			"type": "games",
			"thumbnail": "shooter.png",
			"description": "Multiplayer 3D FPS"
		},
		{
			"id": "coding-math",
			"title": "Coding math",
			"type": "games",
			"thumbnail": "coding-math.png",
			"description": "Includes examples of how to apply math and physics in games"
		},
		{
			"id": "brandbox",
			"title": "BrandBox",
			"type": "webs",
			"thumbnail": "brandbox.png",
			"description": "Cloud application"
		},
		{
			"id": "my-web",
			"title": "My personal web",
			"type": "webs",
			"thumbnail": "my-web.jpg",
			"description": "This website"
		},
		{
			"id": "saliency-map",
			"title": "Generating a Saliency Map",
			"type": "school",
			"thumbnail": "bp-saliency.jpg",
			"description": "Bachelor thesis"
		},
		{
			"id": "saliency-map-with-depth",
			"title": "Generating a Saliency Map using Depth Information",
			"type": "school",
			"thumbnail": "dp-setup.jpg",
			"description": "Master thesis"
		},
		{
			"id": "virtual-fiit",
			"title": "Virtual FIIT",
			"type": "school",
			"thumbnail": "vfiit-home.jpg",
			"description": "Team project"
		}
	]
}