{
	"title": "Super Mario",
	"longDescription": [
		"This is a partial clone of Super Mario currently in progress. The goal is to learn game programming on relatively low level.",
		"The sprites and sound are not my work, they have been downloaded for now (check Source).",
		"The game contains custom level editor to easily create new levels. There are 2 types of enemies so far: Goomba and Koopa, and 3 collectable items: magic mushroom, up mushroom and coins.",
		"Collisions are detected and resolved using custom implementation, which is adequate at this stage. Since I wanted to learn more about collisions, I didn't use Box2D physics engine yet.",
		"In the future I'm planning to add more levels and a final condition to win the game. I'm also thinking about refactoring the code to use a component-based architecture."
	],
	"linkCategories": [
		{
			"name": "Source",
			"type": "source",
			"items": [
				{
					"name": "Code",
					"url": "https://bitbucket.org/vmazanova/supermario"
				},
				{
					"name": "Sound",
					"url": "http://themushroomkingdom.net/media/smb/wav"
				},
				{
					"name": "Sprites",
					"url": "https://www.spriters-resource.com/nes/supermariobros/"
				}
			]
		},
		{
			"name": "Executable",
			"type": "exe",
			"items": [
				{
					"name": "SuperMario",
					"url": "https://mazanova.sk/executables/mario.zip"
				}
			]
		}
	],
	"implementation": [
		{
			"name": "libGDX",
			"file": "libgdx.png"
		},
		{
			"name": "Java",
			"file": "java.png"
		}
	],
	"images": [
		{
			"src": "/images/projects/games/mario/editor_load_level.png",
			"thumbnail": "/images/projects/games/mario/editor_load_level_thumb.png",
			"w": 799,
			"h": 413,
			"title": "Level editor - load level"
		},
		{
			"src": "/images/projects/games/mario/editor_menu.png",
			"thumbnail": "/images/projects/games/mario/editor_menu_thumb.png",
			"w": 799,
			"h": 415,
			"title": "Level editor - menu"
		},
		{
			"src": "/images/projects/games/mario/editor_tiles.png",
			"thumbnail": "/images/projects/games/mario/editor_tiles_thumb.png",
			"w": 799,
			"h": 413,
			"title": "Level editor - tile items"
		},
		{
			"src": "/images/projects/games/mario/editor_koopa.png",
			"thumbnail": "/images/projects/games/mario/editor_koopa_thumb.png",
			"w": 797,
			"h": 417,
			"title": "Level editor - entities"
		},
		{
			"src": "/images/projects/games/mario/game_enemy_kill.png",
			"thumbnail": "/images/projects/games/mario/game_enemy_kill_thumb.png",
			"w": 801,
			"h": 413,
			"title": "Game - enemy kill"
		},
		{
			"src": "/images/projects/games/mario/game_mushroom2.png",
			"thumbnail": "/images/projects/games/mario/game_mushroom2_thumb.png",
			"w": 798,
			"h": 413,
			"title": "Game - up mushroom"
		},
		{
			"src": "/images/projects/games/mario/game_enemy_kill2.png",
			"thumbnail": "/images/projects/games/mario/game_enemy_kill2_thumb.png",
			"w": 799,
			"h": 412,
			"title": "Game - enemy kill from below"
		},
		{
			"src": "/images/projects/games/mario/game_koopa.png",
			"thumbnail": "/images/projects/games/mario/game_koopa_thumb.png",
			"w": 796,
			"h": 412,
			"title": "Game - koopa shell"
		},
		{
			"src": "/images/projects/games/mario/game_flag.png",
			"thumbnail": "/images/projects/games/mario/game_flag_thumb.png",
			"w": 796,
			"h": 411,
			"title": "Game - final flag"
		}
	]
}